Project 1: Exploratory Data Analysis (SDS348)
…
library(tidyverse)

summary.fulldata %>% group_by(Infection_intensity, Date) %>% summarize(max(`Number of New COVID Cases`), min(`Number of New COVID Cases`), mean(`Number of New COVID Cases`), sd(`Number of New COVID Cases`), median(`Number of New COVID Cases`))

## `summarise()` regrouping output by 'Infection_intensity' (override with `.groups` argument)

## # A tibble: 93 x 7
## # Groups:   Infection_intensity [3]
##    Infection_inten… Date       `max(\`Number o… `min(\`Number o…
##    <chr>            <date>                <dbl>            <dbl>
##  1 high             2020-03-09              247              247
##  2 high             2020-03-10              241              241
##  3 high             2020-03-18              213              213
##  4 high             2020-03-19              239              239
##  5 high             2020-03-20              308              308
##  6 high             2020-03-23              296              296
##  7 high             2020-03-24              313              313
##  8 high             2020-03-25              292              292
##  9 high             2020-03-26              297              297
## 10 high             2020-03-27              262              262
## # … with 83 more rows, and 3 more variables: `mean(\`Number of New COVID
## #   Cases\`)` <dbl>, `sd(\`Number of New COVID Cases\`)` <dbl>,
## #   `median(\`Number of New COVID Cases\`)` <dbl>
…
